^F:\4DMAKERVER2.3_BASEBALL_VS2019\SRC\ESMMOTORIZEDBASE\ESMMOTORIZEDBASE.CPP
/c /I..\..\INCLUDE /I..\..\INCLUDE\X64 /I..\..\INCLUDE\X64\OPENCV /I..\CLASSES\CONTROLS\MANAGEMENT /I..\CLASSES\COMMON /I..\CLASSES\COMMON\INCLUDE /I..\..\INCLUDE\X64\FFMEPG /Zi /nologo /W3 /WX- /diagnostics:column /O2 /D _WIN64 /D _WINDOWS /D NDEBUG /D _AFXEXT /D _WINDLL /D _UNICODE /D UNICODE /D _AFXDLL /Gm- /EHa /MD /GS /fp:precise /Zc:wchar_t /Zc:forScope /Zc:inline /Yc"stdafx.h" /Fp".\RELEASE\\ESMMOTORIZEDBASE.PCH" /Fo".\RELEASE\\" /Fd".\RELEASE\\ESMMOTORIZEDBASE.PDB" /Gd /TP /FC F:\4DMAKERVER2.3_BASEBALL_VS2019\SRC\ESMMOTORIZEDBASE\ESMMOTORIZEDBASE.CPP
^F:\4DMAKERVER2.3_BASEBALL_VS2019\SRC\ESMMOTORIZEDBASE\ESMMOTORIZEDBASEMGR.CPP
/c /I..\..\INCLUDE /I..\..\INCLUDE\X64 /I..\..\INCLUDE\X64\OPENCV /I..\CLASSES\CONTROLS\MANAGEMENT /I..\CLASSES\COMMON /I..\CLASSES\COMMON\INCLUDE /I..\..\INCLUDE\X64\FFMEPG /Zi /nologo /W3 /WX- /diagnostics:column /O2 /D _WIN64 /D _WINDOWS /D NDEBUG /D _AFXEXT /D _WINDLL /D _UNICODE /D UNICODE /D _AFXDLL /Gm- /EHa /MD /GS /fp:precise /Zc:wchar_t /Zc:forScope /Zc:inline /Yc"stdafx.h" /Fp".\RELEASE\\ESMMOTORIZEDBASE.PCH" /Fo".\RELEASE\\" /Fd".\RELEASE\\ESMMOTORIZEDBASE.PDB" /Gd /TP /FC F:\4DMAKERVER2.3_BASEBALL_VS2019\SRC\ESMMOTORIZEDBASE\ESMMOTORIZEDBASEMGR.CPP
^F:\4DMAKERVER2.3_BASEBALL_VS2019\SRC\ESMMOTORIZEDBASE\STDAFX.CPP
/c /I..\..\INCLUDE /I..\..\INCLUDE\X64 /I..\..\INCLUDE\X64\OPENCV /I..\CLASSES\CONTROLS\MANAGEMENT /I..\CLASSES\COMMON /I..\CLASSES\COMMON\INCLUDE /I..\..\INCLUDE\X64\FFMEPG /Zi /nologo /W3 /WX- /diagnostics:column /O2 /D _WIN64 /D _WINDOWS /D NDEBUG /D _AFXEXT /D _WINDLL /D _UNICODE /D UNICODE /D _AFXDLL /Gm- /EHa /MD /GS /fp:precise /Zc:wchar_t /Zc:forScope /Zc:inline /Yc"stdafx.h" /Fp".\RELEASE\\ESMMOTORIZEDBASE.PCH" /Fo".\RELEASE\\" /Fd".\RELEASE\\ESMMOTORIZEDBASE.PDB" /Gd /TP /FC F:\4DMAKERVER2.3_BASEBALL_VS2019\SRC\ESMMOTORIZEDBASE\STDAFX.CPP
