^F:\4DMAKERVER2.3_BASEBALL_VS2019\SRC\ESMMOTORIZEDBASE\ESMMOTORIZEDBASE.CPP|F:\4DMAKERVER2.3_BASEBALL_VS2019\SRC\ESMMOTORIZEDBASE\ESMMOTORIZEDBASEMGR.CPP|F:\4DMAKERVER2.3_BASEBALL_VS2019\SRC\ESMMOTORIZEDBASE\STDAFX.CPP
F:\4DMAKERVER2.3_BASEBALL_VS2019\SRC\ESMMOTORIZEDBASE\DEBUG\ESMMOTORIZEDBASED.PCH
F:\4DMAKERVER2.3_BASEBALL_VS2019\SRC\ESMMOTORIZEDBASE\DEBUG\ESMMOTORIZEDBASED.PDB
F:\4DMAKERVER2.3_BASEBALL_VS2019\SRC\ESMMOTORIZEDBASE\DEBUG\ESMMOTORIZEDBASE.OBJ
F:\4DMAKERVER2.3_BASEBALL_VS2019\SRC\ESMMOTORIZEDBASE\DEBUG\ESMMOTORIZEDBASEMGR.OBJ
F:\4DMAKERVER2.3_BASEBALL_VS2019\SRC\ESMMOTORIZEDBASE\DEBUG\STDAFX.OBJ
^F:\4DMAKERVER2.3_BASEBALL_VS2019\SRC\ESMMOTORIZEDBASE\ESMMOTORIZEDBASE.CPP
F:\4DMAKERVER2.3_BASEBALL_VS2019\SRC\ESMMOTORIZEDBASE\DEBUG\ESMMOTORIZEDBASED.PDB
^F:\4DMAKERVER2.3_BASEBALL_VS2019\SRC\ESMMOTORIZEDBASE\ESMMOTORIZEDBASEMGR.CPP
F:\4DMAKERVER2.3_BASEBALL_VS2019\SRC\ESMMOTORIZEDBASE\DEBUG\ESMMOTORIZEDBASED.PDB
^F:\4DMAKERVER2.3_BASEBALL_VS2019\SRC\ESMMOTORIZEDBASE\STDAFX.CPP
F:\4DMAKERVER2.3_BASEBALL_VS2019\SRC\ESMMOTORIZEDBASE\DEBUG\ESMMOTORIZEDBASED.PDB
