^F:\4DMakerVer2.3_Baseball_vs2019\src\ESMMotorizedBase\ESMMotorizedBase.vcxproj
F:\4DMakerVer2.3_Baseball_vs2019\lib\x64\ESMMotorizedBaseD.lib
F:\4DMakerVer2.3_Baseball_vs2019\lib\x64\ESMMotorizedBaseD.exp
