^F:\4DMAKERVER2.3_BASEBALL_VS2019\SRC\SDIMGR\STDAFX.CPP
/c /I..\SDICORE /I..\CLASSES\OPENCV /I..\CLASSES\CONTROLS\MANAGEMENT /I..\SDICORE\HOST\INC /I..\SDICORE\USBHAL\INC /I..\SDICORE\DEVPROPERTY /I..\..\INCLUDE /I..\..\INCLUDE\X64 /I..\CLASSES\COMMON /I..\CLASSES\COMMON\INCLUDE /Zi /nologo /W3 /WX- /diagnostics:column /Od /D _WIN64 /D JPEG_RECORD /D _WINDOWS /D _DEBUG /D _AFXEXT /D _WINDLL /D _UNICODE /D UNICODE /D _AFXDLL /D _CRT_SECURE_NO_WARNINGS /D _NonOpenCV /Gm- /EHa /RTC1 /MDd /GS /fp:precise /Zc:wchar_t /Zc:forScope /Zc:inline /Yc"stdafx.h" /Fp".\DEBUG\\SDIMGRPURED.PCH" /Fo".\DEBUG\\" /Fd".\DEBUG\\SDIMGRPURED.PDB" /Gd /TP /FC F:\4DMAKERVER2.3_BASEBALL_VS2019\SRC\SDIMGR\STDAFX.CPP
^F:\4DMAKERVER2.3_BASEBALL_VS2019\SRC\SDIMGR\LIVEVIEWCONVERTERPURE.CPP
/c /I..\SDICORE /I..\CLASSES\OPENCV /I..\CLASSES\CONTROLS\MANAGEMENT /I..\SDICORE\HOST\INC /I..\SDICORE\USBHAL\INC /I..\SDICORE\DEVPROPERTY /I..\..\INCLUDE /I..\..\INCLUDE\X64 /I..\CLASSES\COMMON /I..\CLASSES\COMMON\INCLUDE /Zi /nologo /W3 /WX- /diagnostics:column /Od /D _WIN64 /D JPEG_RECORD /D _WINDOWS /D _DEBUG /D _AFXEXT /D _WINDLL /D _UNICODE /D UNICODE /D _AFXDLL /D _CRT_SECURE_NO_WARNINGS /D _NonOpenCV /Gm- /EHa /RTC1 /MDd /GS /fp:precise /Zc:wchar_t /Zc:forScope /Zc:inline /Yu"stdafx.h" /Fp".\DEBUG\\SDIMGRPURED.PCH" /Fo".\DEBUG\\" /Fd".\DEBUG\\SDIMGRPURED.PDB" /Gd /TP /FC F:\4DMAKERVER2.3_BASEBALL_VS2019\SRC\SDIMGR\LIVEVIEWCONVERTERPURE.CPP
^F:\4DMAKERVER2.3_BASEBALL_VS2019\SRC\SDIMGR\SDIMGR.CPP
/c /I..\SDICORE /I..\CLASSES\OPENCV /I..\CLASSES\CONTROLS\MANAGEMENT /I..\SDICORE\HOST\INC /I..\SDICORE\USBHAL\INC /I..\SDICORE\DEVPROPERTY /I..\..\INCLUDE /I..\..\INCLUDE\X64 /I..\CLASSES\COMMON /I..\CLASSES\COMMON\INCLUDE /Zi /nologo /W3 /WX- /diagnostics:column /Od /D _WIN64 /D JPEG_RECORD /D _WINDOWS /D _DEBUG /D _AFXEXT /D _WINDLL /D _UNICODE /D UNICODE /D _AFXDLL /D _CRT_SECURE_NO_WARNINGS /D _NonOpenCV /Gm- /EHa /RTC1 /MDd /GS /fp:precise /Zc:wchar_t /Zc:forScope /Zc:inline /Yu"stdafx.h" /Fp".\DEBUG\\SDIMGRPURED.PCH" /Fo".\DEBUG\\" /Fd".\DEBUG\\SDIMGRPURED.PDB" /Gd /TP /FC F:\4DMAKERVER2.3_BASEBALL_VS2019\SRC\SDIMGR\SDIMGR.CPP
^F:\4DMAKERVER2.3_BASEBALL_VS2019\SRC\SDIMGR\SDIMULTIMGR.CPP
/c /I..\SDICORE /I..\CLASSES\OPENCV /I..\CLASSES\CONTROLS\MANAGEMENT /I..\SDICORE\HOST\INC /I..\SDICORE\USBHAL\INC /I..\SDICORE\DEVPROPERTY /I..\..\INCLUDE /I..\..\INCLUDE\X64 /I..\CLASSES\COMMON /I..\CLASSES\COMMON\INCLUDE /Zi /nologo /W3 /WX- /diagnostics:column /Od /D _WIN64 /D JPEG_RECORD /D _WINDOWS /D _DEBUG /D _AFXEXT /D _WINDLL /D _UNICODE /D UNICODE /D _AFXDLL /D _CRT_SECURE_NO_WARNINGS /D _NonOpenCV /Gm- /EHa /RTC1 /MDd /GS /fp:precise /Zc:wchar_t /Zc:forScope /Zc:inline /Yu"stdafx.h" /Fp".\DEBUG\\SDIMGRPURED.PCH" /Fo".\DEBUG\\" /Fd".\DEBUG\\SDIMGRPURED.PDB" /Gd /TP /FC F:\4DMAKERVER2.3_BASEBALL_VS2019\SRC\SDIMGR\SDIMULTIMGR.CPP
^F:\4DMAKERVER2.3_BASEBALL_VS2019\SRC\SDIMGR\SDISDK.CPP
/c /I..\SDICORE /I..\CLASSES\OPENCV /I..\CLASSES\CONTROLS\MANAGEMENT /I..\SDICORE\HOST\INC /I..\SDICORE\USBHAL\INC /I..\SDICORE\DEVPROPERTY /I..\..\INCLUDE /I..\..\INCLUDE\X64 /I..\CLASSES\COMMON /I..\CLASSES\COMMON\INCLUDE /Zi /nologo /W3 /WX- /diagnostics:column /Od /D _WIN64 /D JPEG_RECORD /D _WINDOWS /D _DEBUG /D _AFXEXT /D _WINDLL /D _UNICODE /D UNICODE /D _AFXDLL /D _CRT_SECURE_NO_WARNINGS /D _NonOpenCV /Gm- /EHa /RTC1 /MDd /GS /fp:precise /Zc:wchar_t /Zc:forScope /Zc:inline /Yu"stdafx.h" /Fp".\DEBUG\\SDIMGRPURED.PCH" /Fo".\DEBUG\\" /Fd".\DEBUG\\SDIMGRPURED.PDB" /Gd /TP /FC F:\4DMAKERVER2.3_BASEBALL_VS2019\SRC\SDIMGR\SDISDK.CPP
^F:\4DMAKERVER2.3_BASEBALL_VS2019\SRC\SDIMGR\SDISINGLEMGR.CPP
/c /I..\SDICORE /I..\CLASSES\OPENCV /I..\CLASSES\CONTROLS\MANAGEMENT /I..\SDICORE\HOST\INC /I..\SDICORE\USBHAL\INC /I..\SDICORE\DEVPROPERTY /I..\..\INCLUDE /I..\..\INCLUDE\X64 /I..\CLASSES\COMMON /I..\CLASSES\COMMON\INCLUDE /Zi /nologo /W3 /WX- /diagnostics:column /Od /D _WIN64 /D JPEG_RECORD /D _WINDOWS /D _DEBUG /D _AFXEXT /D _WINDLL /D _UNICODE /D UNICODE /D _AFXDLL /D _CRT_SECURE_NO_WARNINGS /D _NonOpenCV /Gm- /EHa /RTC1 /MDd /GS /fp:precise /Zc:wchar_t /Zc:forScope /Zc:inline /Yu"stdafx.h" /Fp".\DEBUG\\SDIMGRPURED.PCH" /Fo".\DEBUG\\" /Fd".\DEBUG\\SDIMGRPURED.PDB" /Gd /TP /FC F:\4DMAKERVER2.3_BASEBALL_VS2019\SRC\SDIMGR\SDISINGLEMGR.CPP
^F:\4DMAKERVER2.3_BASEBALL_VS2019\SRC\SDIMGR\SDISINGLEMGRPTP.CPP
/c /I..\SDICORE /I..\CLASSES\OPENCV /I..\CLASSES\CONTROLS\MANAGEMENT /I..\SDICORE\HOST\INC /I..\SDICORE\USBHAL\INC /I..\SDICORE\DEVPROPERTY /I..\..\INCLUDE /I..\..\INCLUDE\X64 /I..\CLASSES\COMMON /I..\CLASSES\COMMON\INCLUDE /Zi /nologo /W3 /WX- /diagnostics:column /Od /D _WIN64 /D JPEG_RECORD /D _WINDOWS /D _DEBUG /D _AFXEXT /D _WINDLL /D _UNICODE /D UNICODE /D _AFXDLL /D _CRT_SECURE_NO_WARNINGS /D _NonOpenCV /Gm- /EHa /RTC1 /MDd /GS /fp:precise /Zc:wchar_t /Zc:forScope /Zc:inline /Yu"stdafx.h" /Fp".\DEBUG\\SDIMGRPURED.PCH" /Fo".\DEBUG\\" /Fd".\DEBUG\\SDIMGRPURED.PDB" /Gd /TP /FC F:\4DMAKERVER2.3_BASEBALL_VS2019\SRC\SDIMGR\SDISINGLEMGRPTP.CPP
