^F:\4DMAKERVER2.3_BASEBALL_VS2019\SRC\GPUDECODINGPROCESS\CUDAMODULEMGR.CPP
/c /I..\COMMON2\INC /Zi /nologo /W3 /WX- /diagnostics:column /O2 /Oi /D WIN64 /D _MBCS /D _CRT_SECURE_NO_WARNINGS /D INIT_CUDA_D3D11 /Gm- /EHsc /MT /GS /Gy /fp:precise /Zc:wchar_t /Zc:forScope /Zc:inline /Fo".\RELEASE\\" /Fd".\RELEASE\VC142.PDB" /Gd /TP /FC -D__STDC_CONSTANT_MACROS  F:\4DMAKERVER2.3_BASEBALL_VS2019\SRC\GPUDECODINGPROCESS\CUDAMODULEMGR.CPP
^F:\4DMAKERVER2.3_BASEBALL_VS2019\SRC\GPUDECODINGPROCESS\CUDAPROCESSFRAME.CPP
/c /I..\COMMON2\INC /Zi /nologo /W3 /WX- /diagnostics:column /O2 /Oi /D WIN64 /D _MBCS /D _CRT_SECURE_NO_WARNINGS /D INIT_CUDA_D3D11 /Gm- /EHsc /MT /GS /Gy /fp:precise /Zc:wchar_t /Zc:forScope /Zc:inline /Fo".\RELEASE\\" /Fd".\RELEASE\VC142.PDB" /Gd /TP /FC -D__STDC_CONSTANT_MACROS  F:\4DMAKERVER2.3_BASEBALL_VS2019\SRC\GPUDECODINGPROCESS\CUDAPROCESSFRAME.CPP
^F:\4DMAKERVER2.3_BASEBALL_VS2019\SRC\GPUDECODINGPROCESS\DYNLINK_CUDA.CPP
/c /I..\COMMON2\INC /Zi /nologo /W3 /WX- /diagnostics:column /O2 /Oi /D WIN64 /D _MBCS /D _CRT_SECURE_NO_WARNINGS /D INIT_CUDA_D3D11 /Gm- /EHsc /MT /GS /Gy /fp:precise /Zc:wchar_t /Zc:forScope /Zc:inline /Fo".\RELEASE\\" /Fd".\RELEASE\VC142.PDB" /Gd /TP /FC -D__STDC_CONSTANT_MACROS  F:\4DMAKERVER2.3_BASEBALL_VS2019\SRC\GPUDECODINGPROCESS\DYNLINK_CUDA.CPP
^F:\4DMAKERVER2.3_BASEBALL_VS2019\SRC\GPUDECODINGPROCESS\DYNLINK_NVCUVID.CPP
/c /I..\COMMON2\INC /Zi /nologo /W3 /WX- /diagnostics:column /O2 /Oi /D WIN64 /D _MBCS /D _CRT_SECURE_NO_WARNINGS /D INIT_CUDA_D3D11 /Gm- /EHsc /MT /GS /Gy /fp:precise /Zc:wchar_t /Zc:forScope /Zc:inline /Fo".\RELEASE\\" /Fd".\RELEASE\VC142.PDB" /Gd /TP /FC -D__STDC_CONSTANT_MACROS  F:\4DMAKERVER2.3_BASEBALL_VS2019\SRC\GPUDECODINGPROCESS\DYNLINK_NVCUVID.CPP
^F:\4DMAKERVER2.3_BASEBALL_VS2019\SRC\GPUDECODINGPROCESS\ESMGPUDECODE.CPP
/c /I..\COMMON2\INC /Zi /nologo /W3 /WX- /diagnostics:column /O2 /Oi /D WIN64 /D _MBCS /D _CRT_SECURE_NO_WARNINGS /D INIT_CUDA_D3D11 /Gm- /EHsc /MT /GS /Gy /fp:precise /Zc:wchar_t /Zc:forScope /Zc:inline /Fo".\RELEASE\\" /Fd".\RELEASE\VC142.PDB" /Gd /TP /FC -D__STDC_CONSTANT_MACROS  F:\4DMAKERVER2.3_BASEBALL_VS2019\SRC\GPUDECODINGPROCESS\ESMGPUDECODE.CPP
^F:\4DMAKERVER2.3_BASEBALL_VS2019\SRC\GPUDECODINGPROCESS\ESMREALTIMEPROCESSING.CPP
/c /I..\COMMON2\INC /Zi /nologo /W3 /WX- /diagnostics:column /O2 /Oi /D WIN64 /D _MBCS /D _CRT_SECURE_NO_WARNINGS /D INIT_CUDA_D3D11 /Gm- /EHsc /MT /GS /Gy /fp:precise /Zc:wchar_t /Zc:forScope /Zc:inline /Fo".\RELEASE\\" /Fd".\RELEASE\VC142.PDB" /Gd /TP /FC -D__STDC_CONSTANT_MACROS  F:\4DMAKERVER2.3_BASEBALL_VS2019\SRC\GPUDECODINGPROCESS\ESMREALTIMEPROCESSING.CPP
^F:\4DMAKERVER2.3_BASEBALL_VS2019\SRC\GPUDECODINGPROCESS\FFMPEGMGR.CPP
/c /I..\COMMON2\INC /Zi /nologo /W3 /WX- /diagnostics:column /O2 /Oi /D WIN64 /D _MBCS /D _CRT_SECURE_NO_WARNINGS /D INIT_CUDA_D3D11 /Gm- /EHsc /MT /GS /Gy /fp:precise /Zc:wchar_t /Zc:forScope /Zc:inline /Fo".\RELEASE\\" /Fd".\RELEASE\VC142.PDB" /Gd /TP /FC -D__STDC_CONSTANT_MACROS  F:\4DMAKERVER2.3_BASEBALL_VS2019\SRC\GPUDECODINGPROCESS\FFMPEGMGR.CPP
^F:\4DMAKERVER2.3_BASEBALL_VS2019\SRC\GPUDECODINGPROCESS\FRAMEQUEUE.CPP
/c /I..\COMMON2\INC /Zi /nologo /W3 /WX- /diagnostics:column /O2 /Oi /D WIN64 /D _MBCS /D _CRT_SECURE_NO_WARNINGS /D INIT_CUDA_D3D11 /Gm- /EHsc /MT /GS /Gy /fp:precise /Zc:wchar_t /Zc:forScope /Zc:inline /Fo".\RELEASE\\" /Fd".\RELEASE\VC142.PDB" /Gd /TP /FC -D__STDC_CONSTANT_MACROS  F:\4DMAKERVER2.3_BASEBALL_VS2019\SRC\GPUDECODINGPROCESS\FRAMEQUEUE.CPP
^F:\4DMAKERVER2.3_BASEBALL_VS2019\SRC\GPUDECODINGPROCESS\IMAGEDX.CPP
/c /I..\COMMON2\INC /Zi /nologo /W3 /WX- /diagnostics:column /O2 /Oi /D WIN64 /D _MBCS /D _CRT_SECURE_NO_WARNINGS /D INIT_CUDA_D3D11 /Gm- /EHsc /MT /GS /Gy /fp:precise /Zc:wchar_t /Zc:forScope /Zc:inline /Fo".\RELEASE\\" /Fd".\RELEASE\VC142.PDB" /Gd /TP /FC -D__STDC_CONSTANT_MACROS  F:\4DMAKERVER2.3_BASEBALL_VS2019\SRC\GPUDECODINGPROCESS\IMAGEDX.CPP
^F:\4DMAKERVER2.3_BASEBALL_VS2019\SRC\GPUDECODINGPROCESS\MAIN.CPP
/c /I..\COMMON2\INC /Zi /nologo /W3 /WX- /diagnostics:column /O2 /Oi /D WIN64 /D _MBCS /D _CRT_SECURE_NO_WARNINGS /D INIT_CUDA_D3D11 /Gm- /EHsc /MT /GS /Gy /fp:precise /Zc:wchar_t /Zc:forScope /Zc:inline /Fo".\RELEASE\\" /Fd".\RELEASE\VC142.PDB" /Gd /TP /FC -D__STDC_CONSTANT_MACROS  F:\4DMAKERVER2.3_BASEBALL_VS2019\SRC\GPUDECODINGPROCESS\MAIN.CPP
^F:\4DMAKERVER2.3_BASEBALL_VS2019\SRC\GPUDECODINGPROCESS\RTTHREADMGR.CPP
/c /I..\COMMON2\INC /Zi /nologo /W3 /WX- /diagnostics:column /O2 /Oi /D WIN64 /D _MBCS /D _CRT_SECURE_NO_WARNINGS /D INIT_CUDA_D3D11 /Gm- /EHsc /MT /GS /Gy /fp:precise /Zc:wchar_t /Zc:forScope /Zc:inline /Fo".\RELEASE\\" /Fd".\RELEASE\VC142.PDB" /Gd /TP /FC -D__STDC_CONSTANT_MACROS  F:\4DMAKERVER2.3_BASEBALL_VS2019\SRC\GPUDECODINGPROCESS\RTTHREADMGR.CPP
^F:\4DMAKERVER2.3_BASEBALL_VS2019\SRC\GPUDECODINGPROCESS\VIDEODECODER.CPP
/c /I..\COMMON2\INC /Zi /nologo /W3 /WX- /diagnostics:column /O2 /Oi /D WIN64 /D _MBCS /D _CRT_SECURE_NO_WARNINGS /D INIT_CUDA_D3D11 /Gm- /EHsc /MT /GS /Gy /fp:precise /Zc:wchar_t /Zc:forScope /Zc:inline /Fo".\RELEASE\\" /Fd".\RELEASE\VC142.PDB" /Gd /TP /FC -D__STDC_CONSTANT_MACROS  F:\4DMAKERVER2.3_BASEBALL_VS2019\SRC\GPUDECODINGPROCESS\VIDEODECODER.CPP
^F:\4DMAKERVER2.3_BASEBALL_VS2019\SRC\GPUDECODINGPROCESS\VIDEOPARSER.CPP
/c /I..\COMMON2\INC /Zi /nologo /W3 /WX- /diagnostics:column /O2 /Oi /D WIN64 /D _MBCS /D _CRT_SECURE_NO_WARNINGS /D INIT_CUDA_D3D11 /Gm- /EHsc /MT /GS /Gy /fp:precise /Zc:wchar_t /Zc:forScope /Zc:inline /Fo".\RELEASE\\" /Fd".\RELEASE\VC142.PDB" /Gd /TP /FC -D__STDC_CONSTANT_MACROS  F:\4DMAKERVER2.3_BASEBALL_VS2019\SRC\GPUDECODINGPROCESS\VIDEOPARSER.CPP
^F:\4DMAKERVER2.3_BASEBALL_VS2019\SRC\GPUDECODINGPROCESS\VIDEOSOURCE.CPP
/c /I..\COMMON2\INC /Zi /nologo /W3 /WX- /diagnostics:column /O2 /Oi /D WIN64 /D _MBCS /D _CRT_SECURE_NO_WARNINGS /D INIT_CUDA_D3D11 /Gm- /EHsc /MT /GS /Gy /fp:precise /Zc:wchar_t /Zc:forScope /Zc:inline /Fo".\RELEASE\\" /Fd".\RELEASE\VC142.PDB" /Gd /TP /FC -D__STDC_CONSTANT_MACROS  F:\4DMAKERVER2.3_BASEBALL_VS2019\SRC\GPUDECODINGPROCESS\VIDEOSOURCE.CPP
