^F:\4DMAKERVER2.3_BASEBALL_VS2019\SRC\SDIMGR\RELEASE\LIVEVIEWCONVERTERPURE.OBJ|F:\4DMAKERVER2.3_BASEBALL_VS2019\SRC\SDIMGR\RELEASE\SDIMGR.OBJ|F:\4DMAKERVER2.3_BASEBALL_VS2019\SRC\SDIMGR\RELEASE\SDIMGR.RES|F:\4DMAKERVER2.3_BASEBALL_VS2019\SRC\SDIMGR\RELEASE\SDIMULTIMGR.OBJ|F:\4DMAKERVER2.3_BASEBALL_VS2019\SRC\SDIMGR\RELEASE\SDISDK.OBJ|F:\4DMAKERVER2.3_BASEBALL_VS2019\SRC\SDIMGR\RELEASE\SDISINGLEMGR.OBJ|F:\4DMAKERVER2.3_BASEBALL_VS2019\SRC\SDIMGR\RELEASE\SDISINGLEMGRPTP.OBJ|F:\4DMAKERVER2.3_BASEBALL_VS2019\SRC\SDIMGR\RELEASE\STDAFX.OBJ
/OUT:"..\..\BIN\X64\RELEASE\SDIMGRPURE.DLL" /INCREMENTAL /NOLOGO /LIBPATH:..\..\LIB\X64 SDICORE.LIB /MANIFEST /MANIFESTUAC:"level='asInvoker' uiAccess='false'" /manifest:embed /manifestinput:"C:\PROGRAM FILES (X86)\MICROSOFT VISUAL STUDIO\2019\PROFESSIONAL\VC\TOOLS\MSVC\14.23.28105\INCLUDE\MANIFEST\DPIAWARE.MANIFEST" /DEBUG /PDB:".\RELEASE\\SDIMGRPURE.PDB" /SUBSYSTEM:WINDOWS /OPT:REF /OPT:ICF /TLBID:1 /DYNAMICBASE /NXCOMPAT /IMPLIB:"..\..\LIB\X64\SDIMGRPURE.LIB" /MACHINE:X64 /DLL .\RELEASE\SDIMGR.RES
.\RELEASE\LIVEVIEWCONVERTERPURE.OBJ
.\RELEASE\SDIMGR.OBJ
.\RELEASE\SDIMULTIMGR.OBJ
.\RELEASE\SDISDK.OBJ
.\RELEASE\SDISINGLEMGR.OBJ
.\RELEASE\SDISINGLEMGRPTP.OBJ
.\RELEASE\STDAFX.OBJ
